…
The function uses `purrr::safely()` to handle failures gracefully - if
a model can't be trained (e.g., missing dependencies), it returns NULL
without stopping the entire process.

### Working with Predictions

Extract predictions from trained models:

``` r
# Get predictions from all models
predictions <- extract_wflw_pred(models_tbl, 1:2)
predictions
#> # A tibble: 128 × 4
#>    .model_type     .data_category .data_type .value
#>    <chr>           <chr>          <chr>       <dbl>
#>  1 lm - linear_reg actual         actual       15.5
#>  2 lm - linear_reg actual         actual       19.2
#>  3 lm - linear_reg actual         actual       21.5
#>  4 lm - linear_reg actual         actual       14.3
#>  5 lm - linear_reg actual         actual       21.4
#>  6 lm - linear_reg actual         actual       21  
#>  7 lm - linear_reg actual         actual       13.3
#>  8 lm - linear_reg actual         actual       15.2
#>  9 lm - linear_reg actual         actual       24.4
#> 10 lm - linear_reg actual         actual       10.4
#> # ℹ 118 more rows
```

### Analyzing Residuals

Get model residuals for diagnostic purposes:

``` r
# Extract residuals
residuals <- extract_regression_residuals(models_tbl)
residuals[[1]]  # View first model's residuals
#> # A tibble: 32 × 4
#>    .model_type     .actual .predicted  .resid
#>    <chr>             <dbl>      <dbl>   <dbl>
#>  1 lm - linear_reg    15.5       16.5 -0.988 
#>  2 lm - linear_reg    19.2       19.7 -0.488 
#>  3 lm - linear_reg    21.5       21.6 -0.127 
#>  4 lm - linear_reg    14.3       14.1  0.157 
#>  5 lm - linear_reg    21.4       24.6 -3.23  
#>  6 lm - linear_reg    21         21.1 -0.0800
#>  7 lm - linear_reg    13.3       13.8 -0.482 
#>  8 lm - linear_reg    15.2       17.7 -2.52  
#>  9 lm - linear_reg    24.4       22.3  2.11  
#> 10 lm - linear_reg    10.4       11.5 -1.14  
#> # ℹ 22 more rows
```
…
### Extract Classification Predictions

``` r
# Get predictions
class_predictions <- extract_wflw_pred(class_models, 1:2)
class_predictions
#> # A tibble: 8,804 × 5
#>    .model_type          .data_category .data_type .pred_class .pred_probability
#>    <chr>                <chr>          <chr>      <fct>                   <dbl>
#>  1 glm - logistic_reg   actual         actual     No                     NA    
#>  2 glm - logistic_reg   actual         actual     No                     NA    
#>  3 glm - logistic_reg   actual         actual     Yes                    NA    
#>  4 glm - logistic_reg   actual         actual     Yes                    NA    
#>  5 glm - logistic_reg   actual         actual     No                     NA    
#>  6 glm - logistic_reg   actual         actual     No                     NA    
#>  7 glm - logistic_reg   actual         actual     Yes                    NA    
#>  8 glm - logistic_reg   actual         actual     Yes                    NA    
#>  9 glm - logistic_reg   actual         actual     No                     NA    
#> 10 glm - logistic_reg   actual         actual     No                     NA    
#> # ℹ 8,794 more rows
```
…
