…
The function uses
[`purrr::safely()`](https://purrr.tidyverse.org/reference/safely.html)
to handle failures gracefully - if a model can’t be trained (e.g.,
missing dependencies), it returns NULL without stopping the entire
process.

### Working with Predictions

Extract predictions from trained models:

``` r
# Get predictions from all models
predictions <- extract_wflw_pred(models_tbl, 1:2)
predictions
#> # A tibble: 128 × 4
#>    .model_type     .data_category .data_type .value
#>    <chr>           <chr>          <chr>       <dbl>
#>  1 lm - linear_reg actual         actual       18.1
#>  2 lm - linear_reg actual         actual       15.8
#>  3 lm - linear_reg actual         actual       22.8
#>  4 lm - linear_reg actual         actual       33.9
#>  5 lm - linear_reg actual         actual       30.4
#>  6 lm - linear_reg actual         actual       21  
#>  7 lm - linear_reg actual         actual       17.8
#>  8 lm - linear_reg actual         actual       17.3
#>  9 lm - linear_reg actual         actual       18.7
#> 10 lm - linear_reg actual         actual       21  
#> # ℹ 118 more rows
```

### Analyzing Residuals

Get model residuals for diagnostic purposes:

``` r
# Extract residuals
residuals <- extract_regression_residuals(models_tbl)
residuals[[1]]  # View first model's residuals
#> # A tibble: 32 × 4
#>    .model_type     .actual .predicted .resid
#>    <chr>             <dbl>      <dbl>  <dbl>
#>  1 lm - linear_reg    18.1       21.1 -3.04 
#>  2 lm - linear_reg    15.8       18.5 -2.74 
#>  3 lm - linear_reg    22.8       25.1 -2.32 
#>  4 lm - linear_reg    33.9       31.5  2.43 
#>  5 lm - linear_reg    30.4       28.1  2.27 
#>  6 lm - linear_reg    21         22.4 -1.38 
#>  7 lm - linear_reg    17.8       19.3 -1.45 
#>  8 lm - linear_reg    17.3       15.8  1.49 
#>  9 lm - linear_reg    18.7       18.3  0.432
#> 10 lm - linear_reg    21         22.6 -1.58 
#> # ℹ 22 more rows
```
…
### Extract Classification Predictions

``` r
# Get predictions
class_predictions <- extract_wflw_pred(class_models, 1:2)
class_predictions
#> # A tibble: 4,402 × 4
#>    .model_type        .data_category .data_type .value
#>    <chr>              <chr>          <chr>      <fct> 
#>  1 glm - logistic_reg actual         actual     No    
#>  2 glm - logistic_reg actual         actual     Yes   
#>  3 glm - logistic_reg actual         actual     No    
#>  4 glm - logistic_reg actual         actual     Yes   
#>  5 glm - logistic_reg actual         actual     No    
#>  6 glm - logistic_reg actual         actual     No    
#>  7 glm - logistic_reg actual         actual     No    
#>  8 glm - logistic_reg actual         actual     No    
#>  9 glm - logistic_reg actual         actual     No    
#> 10 glm - logistic_reg actual         actual     No    
#> # ℹ 4,392 more rows
```
…
