…
As we see above, one of the models has gracefully failed, thanks in part
to the function
[`purrr::safely()`](https://purrr.tidyverse.org/reference/safely.html),
which was used to make what I call **safe_make** functions.

Let’s look at the fitted workflow predictions.

``` r
frt_tbl$pred_wflw
#> [[1]]
#> # A tibble: 64 × 3
#>    .data_category .data_type .value
#>    <chr>          <chr>       <dbl>
#>  1 actual         actual       17.3
#>  2 actual         actual       15.2
#>  3 actual         actual       16.4
#>  4 actual         actual       18.7
#>  5 actual         actual       18.1
#>  6 actual         actual       10.4
#>  7 actual         actual       26  
#>  8 actual         actual       21.4
#>  9 actual         actual       30.4
#> 10 actual         actual       22.8
#> # ℹ 54 more rows
#> 
#> [[2]]
#> # A tibble: 64 × 3
#>    .data_category .data_type .value
#>    <chr>          <chr>       <dbl>
#>  1 actual         actual       17.3
#>  2 actual         actual       15.2
#>  3 actual         actual       16.4
#>  4 actual         actual       18.7
#>  5 actual         actual       18.1
#>  6 actual         actual       10.4
#>  7 actual         actual       26  
#>  8 actual         actual       21.4
#>  9 actual         actual       30.4
#> 10 actual         actual       22.8
#> # ℹ 54 more rows
```
