…
rec_obj <- recipe(mpg ~ ., data = mtcars)
splits_obj <- create_splits(mtcars, "initial_split")

mod_tbl <- mod_spec_tbl |>
  mutate(wflw = full_internal_make_wflw(mod_spec_tbl, rec_obj))

mod_fitted_tbl <- mod_tbl |>
  mutate(fitted_wflw = internal_make_fitted_wflw(mod_tbl, splits_obj))

internal_make_wflw_predictions(mod_fitted_tbl, splits_obj)
#> [[1]]
#> # A tibble: 64 × 3
#>    .data_category .data_type .value
#>    <chr>          <chr>       <dbl>
#>  1 actual         actual       30.4
#>  2 actual         actual       10.4
#>  3 actual         actual       15.2
#>  4 actual         actual       17.3
#>  5 actual         actual       21.5
#>  6 actual         actual       22.8
#>  7 actual         actual       15.5
#>  8 actual         actual       21  
#>  9 actual         actual       21  
#> 10 actual         actual       19.7
#> # ℹ 54 more rows
#> 
#> [[2]]
#> # A tibble: 64 × 3
#>    .data_category .data_type .value
#>    <chr>          <chr>       <dbl>
#>  1 actual         actual       30.4
#>  2 actual         actual       10.4
#>  3 actual         actual       15.2
#>  4 actual         actual       17.3
#>  5 actual         actual       21.5
#>  6 actual         actual       22.8
#>  7 actual         actual       15.5
#>  8 actual         actual       21  
#>  9 actual         actual       21  
#> 10 actual         actual       19.7
#> # ℹ 54 more rows
…
