…
## Author

Steven P. Sanderson II, MPH

## Examples

``` r
make_regression_base_tbl()
#> # A tibble: 39 × 3
#>    .parsnip_engine .parsnip_mode .parsnip_fns
#>    <chr>           <chr>         <chr>       
#>  1 lm              regression    linear_reg  
#>  2 brulee          regression    linear_reg  
#>  3 gee             regression    linear_reg  
#>  4 glm             regression    linear_reg  
#>  5 glmer           regression    linear_reg  
#>  6 glmnet          regression    linear_reg  
#>  7 gls             regression    linear_reg  
#>  8 lme             regression    linear_reg  
#>  9 lmer            regression    linear_reg  
#> 10 stan            regression    linear_reg  
#> # ℹ 29 more rows
```
